{
    "openapi": "3.0.0",
    "info": {
        "version": "1.0.0",
        "title": "Swagger Consultingwerk API KEY TEST",
        "description": "Consultingwerk Prototype",
        "termsOfService": "https:\/\/www.consultingwerk\/about-us\/terms-of-use",
        "contact": {
            "name": "Consultingwerk",
            "email": "info@consultingwerk.de"
        },
        "license": {
            "name": "Copyright (C) 2006-20666 by Consultingwerk Ltd.",
            "url": "https:\/\/www.consultingwerk.com"
        }
    },
    "schemes": [
        "http"
    ],
    "components": {
        "securitySchemes": {
            "ApiKeyAuth": {
                "type": "apiKey",
                "in": "header",
                "name": "X-API-KEY"
            }
        }
    },    
    "security": [
        {
            "ApiKeyAuth": [
            ]
        }
    ]
}
