{
    "tabs": {
        "start": {
            "key": "start",
            "caption": "Start"
        }
    },
    "groups": {
        "navigation": {
            "key": "navigation",
            "caption": "Navigation",
            "tab": "start"
        },
        "tableio": {
            "key": "tableio",
            "caption": "Maintenance",
            "tab": "start"
        }
    },
    "tools": {
        "rule": {
            "buttonType": "separator"
        },
        "separator": {
            "buttonType": "separator"
        },
        "add": {
            "buttonType": "button",
            "buttonName": "TableIOAdd",
            "buttonLabel": "Add",
            "buttonImageSmall": "Consultingwerk/SmartComponents/Images/add.png",
            "buttonImageLarge": "Consultingwerk/SmartComponents/Images/add_32.png",
            "group": "tableio",
            "shortcut": ["Ctrl", "A"]
        },
        "copy": {
            "buttonType": "button",
            "buttonName": "TableIOCopy",
            "buttonLabel": "Copy",
            "buttonImageSmall": "Consultingwerk/SmartComponents/Images/copyrec.png",
            "buttonImageLarge": "Consultingwerk/SmartComponents/Images/copyrec_32.png",
            "group": "tableio"
        },
        "update": {
            "buttonType": "button",
            "buttonName": "TableIOUpdate",
            "buttonLabel": "Update",
            "buttonImageSmall": "Consultingwerk/SmartComponents/Images/update.png",
            "buttonImageLarge": "Consultingwerk/SmartComponents/Images/update_32.png",
            "group": "tableio",
            "shortcut": ["Ctrl", "U"]
        },
        "save": {
            "buttonType": "button",
            "buttonName": "TableIOSave",
            "buttonLabel": "Save",
            "buttonImageSmall": "Consultingwerk/SmartComponents/Images/saverec.png",
            "buttonImageLarge": "Consultingwerk/SmartComponents/Images/saverec_32.png",
            "group": "tableio",
            "shortcut": ["Ctrl", "S"]
        },
        "cancel": {
            "buttonType": "button",
            "buttonName": "TableIOCancel",
            "buttonLabel": "Cancel",
            "buttonImageSmall": "Consultingwerk/SmartComponents/Images/cancel.png",
            "buttonImageLarge": "Consultingwerk/SmartComponents/Images/cancel_32.png",
            "group": "tableio",
            "shortcut": ["Ctrl", "C"]
        },
        "delete": {
            "buttonType": "button",
            "buttonName": "TableIODelete",
            "buttonLabel": "Delete",
            "buttonImageSmall": "Consultingwerk/SmartComponents/Images/deleterec.png",
            "buttonImageLarge": "Consultingwerk/SmartComponents/Images/deleterec_32.png",
            "group": "tableio",
            "shortcut": ["Ctrl", "D"]
        },
        "first": {
            "buttonType": "button",
            "buttonName": "NavigationFirst",
            "buttonLabel": "First",
            "buttonImageSmall": "Consultingwerk/SmartComponents/Images/first.png",
            "buttonImageLarge": "Consultingwerk/SmartComponents/Images/first_32.png",
            "group": "navigation"
        },
        "prev": {
            "buttonType": "button",
            "buttonName": "NavigationPrev",
            "buttonLabel": "Previous",
            "buttonImageSmall": "Consultingwerk/SmartComponents/Images/prev.png",
            "buttonImageLarge": "Consultingwerk/SmartComponents/Images/prev_32.png",
            "group": "navigation"
        },
        "previous": {
            "buttonType": "button",
            "buttonName": "NavigationPrev",
            "buttonLabel": "Previous",
            "buttonImageSmall": "Consultingwerk/SmartComponents/Images/prev.png",
            "buttonImageLarge": "Consultingwerk/SmartComponents/Images/prev_32.png",
            "group": "navigation"
        },
        "next": {
            "buttonType": "button",
            "buttonName": "NavigationNext",
            "buttonLabel": "Next",
            "buttonImageSmall": "Consultingwerk/SmartComponents/Images/next.png",
            "buttonImageLarge": "Consultingwerk/SmartComponents/Images/next_32.png",
            "group": "navigation"
        },        
        "last": {
            "buttonType": "button",
            "buttonName": "NavigationLast",
            "buttonLabel": "Last",
            "buttonImageSmall": "Consultingwerk/SmartComponents/Images/last.png",
            "buttonImageLarge": "Consultingwerk/SmartComponents/Images/last_32.png",
            "group": "navigation"
        }        
    }
}
