{
    "basedOn": "Consultingwerk/Windows/Framework/Reference/startup_gui_fatclient.json",
    "inheritStaticProperties": true,
    "staticProperties": {},
    "applicationSettings": ".applicationsettings",
    "inheritLoadServices": true,
    "loadServices": [
        "Consultingwerk/SmartFramework/services_client.xml"],
    "inheritLoadFactories": true,
    "inheritManagers": true,
    "inheritCustomLogEntries": true,
    "customLogEntries": [],
    "inheritAliases": true,
    "aliases": null,
    "sessionExport":  null
}
