[
    {
        "BusinessEntity": "Consultingwerk.SmartFramework.System.SmartBusinessEntityBusinessEntity",
        "Tables": "*",
        "QueryString": "FOR EACH eSmartBusinessEntity WHERE NOT eSmartBusinessEntity.BusinessEntityPackage BEGINS 'Consultingwerk.SmartComponentsDemo'",
        "FileName": "Consultingwerk/SmartFramework/Data/smartbusinessentity.xml"
    },
    {
        "BusinessEntity": "Consultingwerk.SmartFramework.Authorization.GroupBusinessEntity",
        "Tables": "eSmartGroup",
        "QueryString": "FOR EACH eSmartGroup WHERE eSmartGroup.LoginCompanyGuid=''",
        "FileName": "Consultingwerk/SmartFramework/Data/smartgroup.xml"
    },
    {
        "BusinessEntity": "Consultingwerk.SmartFramework.System.KeyFieldAssignmentTypeBusinessEntity",
        "Tables": "*",
        "QueryString": "FOR EACH eSmartKeyFieldAssignmentType",
        "FileName": "Consultingwerk/SmartFramework/Data/smartkeyfieldassignmenttype.xml"
    },
    {
        "BusinessEntity": "Consultingwerk.SmartFramework.System.LanguageBusinessEntity",
        "Tables": "*",
        "QueryString": "FOR EACH eSmartLanguage",
        "FileName": "Consultingwerk/SmartFramework/Data/smartlanguage.xml"
    },
    {
        "BusinessEntity": "Consultingwerk.SmartFramework.Scheduler.SchedulerJobBusinessEntity",
        "Tables": "*",
        "QueryString": "FOR EACH eSmartSchedulerJob WHERE eSmartSchedulerJob.SchedulerJobName BEGINS '[SmartFramework]'",
        "FileName": "Consultingwerk/SmartFramework/Data/smartschedulerjob.xml"
    },
    {
        "BusinessEntity": "Consultingwerk.SmartFramework.Menu.MenuStyleBusinessEntity",
        "Tables": "*",
        "QueryString": "FOR EACH eSmartMenuStyle",
        "FileName": "Consultingwerk/SmartFramework/Data/smartmenustyle.xml"
    },
    {
        "BusinessEntity": "Consultingwerk.SmartFramework.System.MessageBusinessEntity",
        "Tables": "*",
        "QueryString": "FOR EACH eSmartMessage WHERE eSmartMessage.LanguageGuid = '' AND eSmartMessage.MessageGroup <> 'TEST'",
        "FileName": "Consultingwerk/SmartFramework/Data/smartmessage.xml"
    },
    {
        "BusinessEntity": "Consultingwerk.SmartFramework.System.MessageBusinessEntity",
        "Tables": "*",
        "QueryString": "FOR EACH eSmartMessage WHERE eSmartMessage.LanguageGuid = 'f22eb2af-1aee-bdb9-e211-3013dfe38ac2' AND eSmartMessage.MessageGroup <> 'TEST'",
        "FileName": "Consultingwerk/SmartFramework/Data/smartmessage.de.xml"
    },
    {
        "BusinessEntity": "Consultingwerk.SmartFramework.System.MessageBusinessEntity",
        "Tables": "*",
        "QueryString": "FOR EACH eSmartMessage WHERE eSmartMessage.LanguageGuid = 'f22eb2af-1aee-bdb9-e211-301302572ec6' AND eSmartMessage.MessageGroup <> 'TEST'",
        "FileName": "Consultingwerk/SmartFramework/Data/smartmessage.en.xml"
    },
    {
        "BusinessEntity": "Consultingwerk.SmartFramework.System.MessageBusinessEntity",
        "Tables": "*",
        "QueryString": "FOR EACH eSmartMessage WHERE eSmartMessage.LanguageGuid = 'f22eb2af-1aee-bdb9-e211-3013fd2218ca' AND eSmartMessage.MessageGroup <> 'TEST'",
        "FileName": "Consultingwerk/SmartFramework/Data/smartmessage.fr.xml"
    },
    {
        "BusinessEntity": "Consultingwerk.SmartFramework.System.MessageBusinessEntity",
        "Tables": "*",
        "QueryString": "FOR EACH eSmartMessage WHERE eSmartMessage.LanguageGuid = 'cd229641-1db6-81b3-e211-66569ba03908' AND eSmartMessage.MessageGroup <> 'TEST'",
        "FileName": "Consultingwerk/SmartFramework/Data/smartmessage.nl.xml"
    },
    {
        "BusinessEntity": "Consultingwerk.SmartFramework.Menu.ProductBusinessEntity",
        "Tables": "*",
        "QueryString": "FOR EACH eSmartProduct",
        "FileName": "Consultingwerk/SmartFramework/Data/smartproduct.xml"
    },
    {
        "BusinessEntity": "Consultingwerk.SmartFramework.Menu.ModuleBusinessEntity",
        "Tables": "*",
        "QueryString": "FOR EACH eSmartModule",
        "FileName": "Consultingwerk/SmartFramework/Data/smartmodule.xml"
    },
    {
        "BusinessEntity": "Consultingwerk.SmartFramework.System.RelationBusinessEntity",
        "Tables": "*",
        "QueryString": "FOR EACH eSmartRelation",
        "FileName": "Consultingwerk/SmartFramework/Data/smartrelation.xml"
    },
    {
        "BusinessEntity": "Consultingwerk.SmartFramework.Authorization.SecurityRealmBusinessEntity",
        "Tables": "*",
        "QueryString": "FOR EACH eSmartSecurityRealm",
        "FileName": "Consultingwerk/SmartFramework/Data/smartsecurityrealm.xml"
    },
    {
        "BusinessEntity": "Consultingwerk.SmartFramework.Authorization.SecurityTokenBusinessEntity",
        "Tables": "*",
        "QueryString": "FOR EACH eSmartSecurityToken",
        "FileName": "Consultingwerk/SmartFramework/Data/smartsecuritytoken.xml"
    },
    {
        "BusinessEntity": "Consultingwerk.SmartFramework.System.TableBusinessEntity",
        "Tables": "*",
        "QueryString": "FOR EACH eSmartTable",
        "FileName": "Consultingwerk/SmartFramework/Data/smarttable.xml"
    },
    {
        "BusinessEntity": "Consultingwerk.SmartFramework.System.TranslationBusinessEntity",
        "Tables": "*",
        "QueryString": "FOR EACH eSmartTranslation WHERE eSmartTranslation.LanguageGuid=''",
        "FileName": "Consultingwerk/SmartFramework/Data/smarttranslation.xml"
    },
    {
        "BusinessEntity": "Consultingwerk.SmartFramework.System.TranslationBusinessEntity",
        "Tables": "*",
        "QueryString": "FOR EACH eSmartTranslation WHERE eSmartTranslation.LanguageGuid='f22eb2af-1aee-bdb9-e211-3013dfe38ac2'",
        "FileName": "Consultingwerk/SmartFramework/Data/smarttranslation.de.xml"
    },
    {
        "BusinessEntity": "Consultingwerk.SmartFramework.System.TranslationBusinessEntity",
        "Tables": "*",
        "QueryString": "FOR EACH eSmartTranslation WHERE eSmartTranslation.LanguageGuid='f22eb2af-1aee-bdb9-e211-301302572ec6'",
        "FileName": "Consultingwerk/SmartFramework/Data/smarttranslation.en.xml"
    },
    {
        "BusinessEntity": "Consultingwerk.SmartFramework.System.TranslationBusinessEntity",
        "Tables": "*",
        "QueryString": "FOR EACH eSmartTranslation WHERE eSmartTranslation.LanguageGuid='f22eb2af-1aee-bdb9-e211-3013fd2218ca'",
        "FileName": "Consultingwerk/SmartFramework/Data/smarttranslation.fr.xml"
    },
    {
        "BusinessEntity": "Consultingwerk.SmartFramework.System.TranslationBusinessEntity",
        "Tables": "*",
        "QueryString": "FOR EACH eSmartTranslation WHERE eSmartTranslation.LanguageGuid='cd229641-1db6-81b3-e211-66569ba03908'",
        "FileName": "Consultingwerk/SmartFramework/Data/smarttranslation.nl.xml"
    },
    {
        "BusinessEntity": "Consultingwerk.SmartFramework.System.ValueListBusinessEntity",
        "Tables": "*",
        "QueryString": "FOR EACH eSmartValueList",
        "FileName": "Consultingwerk/SmartFramework/Data/smartvaluelist.xml"
    },
    {
        "BusinessEntity": "Consultingwerk.SmartFramework.Repository.Class.AttributeBusinessEntity",
        "Tables": "*",
        "QueryString": "FOR EACH eSmartAttribute",
        "FileName": "Consultingwerk/SmartFramework/Data/smartattribute.xml"
    },
    {
        "BusinessEntity": "Consultingwerk.SmartFramework.Repository.Class.AttributeGroupBusinessEntity",
        "Tables": "*",
        "QueryString": "FOR EACH eSmartAttributeGroup",
        "FileName": "Consultingwerk/SmartFramework/Data/smartattributegroup.xml"
    },
    {
        "BusinessEntity": "Consultingwerk.SmartFramework.Repository.Class.AttributeValueBusinessEntity",
        "Tables": "eSmartAttributeValue",
        "QueryString": "FOR EACH eSmartAttributeValue WHERE eSmartAttributeValue.ObjectMasterGuid = '' AND eSmartAttributeValue.ContainerObjectMasterGuid = '' AND eSmartAttributeValue.ObjectInstanceGuid = ''",
        "FileName": "Consultingwerk/SmartFramework/Data/smartattributevalue.xml"
    },
    {
        "BusinessEntity": "Consultingwerk.SmartFramework.Repository.Class.ClassTypeBusinessEntity",
        "Tables": "*",
        "QueryString": "FOR EACH eSmartClassType",
        "FileName": "Consultingwerk/SmartFramework/Data/smartclasstype.xml"
    },
    {
        "BusinessEntity": "Consultingwerk.SmartFramework.Repository.Class.LinkTypeBusinessEntity",
        "Tables": "*",
        "QueryString": "FOR EACH eSmartLinkType",
        "FileName": "Consultingwerk/SmartFramework/Data/smartlinktype.xml"
    },
    {
        "BusinessEntity": "Consultingwerk.SmartFramework.Repository.Class.ObjectTypeBusinessEntity",
        "Tables": "*",
        "QueryString": "FOR EACH eSmartObjectType",
        "FileName": "Consultingwerk/SmartFramework/Data/smartobjecttype.xml"
    },
    {
        "BusinessEntity": "Consultingwerk.SmartFramework.Repository.Class.SupportedLinkBusinessEntity",
        "Tables": "*",
        "QueryString": "FOR EACH eSmartSupportedLink",
        "FileName": "Consultingwerk/SmartFramework/Data/smartsupportedlink.xml"
    },
    {
        "BusinessEntity": "Consultingwerk.SmartFramework.Repository.Class.SupportedInstanceObjectTypeBusinessEntity",
        "Tables": "*",
        "QueryString": "FOR EACH eSmartSupportedInstanceObjType",
        "FileName": "Consultingwerk/SmartFramework/Data/supportedinstanceobjecttype.xml"
    },    
    {
        "BusinessEntity": "Consultingwerk.SmartFramework.Repository.Customization.CustomizationTypeBusinessEntity",
        "Tables": "*",
        "QueryString": "FOR EACH eSmartCustomizationType",
        "FileName": "Consultingwerk/SmartFramework/Data/smartcustomizationype.xml"
    }
]
